<?xml version="1.0" encoding="UTF-8"?>
<!DOCTYPE svg PUBLIC "-//W3C//DTD SVG 1.1//EN" "http://www.w3.org/Graphics/SVG/1.1/DTD/svg11.dtd">
<svg version="1.1" xmlns="http://www.w3.org/2000/svg" xmlns:xlink="http://www.w3.org/1999/xlink" x="0" y="0" width="815" height="445" viewBox="0, 0, 815, 445">
  <g id="Layer_1">
    <path d="M737.396,172.42 C729.06,176.866 717.376,172.397 711.398,180.544 C710.578,188.473 707.866,200.228 700.401,204.894 C699.237,205.622 690.788,196.874 690.321,202.014 C690.147,203.933 701.017,232.239 687.31,226.756 C682.056,224.655 683.469,205.025 679.194,205.025 C676.756,205.025 677.815,219.076 677.884,220.473 C678.093,224.635 675.109,241.654 678.015,244.561 C680.579,247.124 687.445,241.487 685.346,251.106 C687.958,260.55 676.139,253.999 673.253,259.77 C671.08,264.115 686.157,257.146 687.693,261.755 C689.257,266.451 679.83,269.969 677.134,271.141 C676.813,274.031 679.449,278.175 678.573,280.803 C677.337,284.509 670.913,282.484 667.266,283.886 C652.037,289.743 614.139,323.921 606.829,341.241 C606.829,358.663 617.352,372.072 621.057,386.889 C622.066,390.925 630.917,450.206 613.646,436.39 C586.481,414.658 600.069,353.388 566.813,358.136 C564.388,359.255 559.762,362.753 557.132,361.876 C551.232,359.91 548.057,352.214 541.401,349.996 C522.945,343.844 497.427,356.123 478.805,352.416 C482.718,354.844 490.881,354.527 493.546,356.926 C506.517,368.6 440.464,358.956 436.561,358.246 C423.126,357.35 420.561,365.51 411.87,372.463 C400.704,381.395 388.317,378.774 382.938,394.91 C381.078,400.489 388.61,422.003 385.432,423.592 C382.823,424.896 376.831,419.729 375.207,418.105 C362.925,405.822 359.464,420.804 349.767,388.924 C305.064,330.81 316.722,377.341 295.894,372.712 C283.576,369.975 276.163,345.18 269.457,336.797 C265.073,331.317 234.592,319.482 230.798,327.07 C229.472,329.722 232.876,334.345 229.052,335.301 C214.422,338.958 198.373,335.503 183.659,334.303 C161.299,327.09 126.647,308.475 105.766,312.909 C92.49,286.356 82.1,297.163 71.256,286.319 C53.857,268.921 40.816,248.449 33.635,229.464 C29.794,222.331 18.432,215.957 16.256,208.341 C6.196,173.132 3.793,134.552 13.047,97.111 C18.426,71.559 9.728,46.051 5.366,20.911 C11.706,23.474 25.967,24.626 30.635,27.738 C35.581,31.035 41.816,47.005 34.713,25.699 C32.305,18.472 39.83,12.971 31.167,6.991 C72.35,6.991 113.817,4.233 154.894,7.195 C209.372,7.195 264.203,4.139 318.704,6.582 C335.291,7.411 352,7.007 368.805,6.394 C387.159,6.394 407.531,5.121 424.629,11.273 C442.992,14.098 453.27,18.939 469.632,25.484 C473.082,26.864 490.279,21.464 494.264,29.432 C494.918,30.738 456.347,50.788 462.684,55.012 C467.48,58.209 470.705,52.878 474.053,51.538 C479.766,49.253 477.95,59.81 488.106,55.644 C495.753,52.366 503.895,49.002 509.426,42.55 C511.502,40.128 518.883,36.282 522.016,37.849 C526.5,40.091 512.575,45.576 513.791,50.44 C514.384,52.814 518.583,48.773 521.009,49.097 C526.387,49.814 526.853,55.284 530.242,57.826 C536.937,62.847 571.28,47.727 575.232,63.534 C576.193,67.377 509.241,69.691 517.82,95.429 C518.805,98.386 522.141,98.765 524.87,98.955 C514.243,109.582 503.992,149.47 515.409,163.742 C526.885,178.088 544.8,147.38 537.218,137.122 C529.616,105.443 568.805,61.312 579.176,108.024 C578.912,114.622 574.11,116.493 572.746,122.493 C569.18,138.183 586.392,102.081 590.59,137.765 C591.576,146.144 552.216,184.657 615.025,162.039 C647.727,148.204 639.318,135.829 640.436,134.871 C647.558,128.766 663.811,138.31 672.878,133.273 C681.259,128.617 678.502,117.111 682.307,114.574 C687.313,111.237 690.256,104.25 696.85,102.748 C707.269,99.661 740.058,109.364 746.89,101.166 C750.643,96.661 758.168,94.301 760.932,89.694 C766.561,80.313 765.867,52.585 779.326,50.138 C782.337,49.59 784.846,54.746 785.062,54.687 C806.836,48.748 797.403,71.6 800.687,86.926 C801.302,89.795 810.527,100.843 808.994,103.144 C804.656,109.652 781.409,114.387 773.591,119.362 C768.132,122.836 763.156,127.231 759.152,132.02 C752.896,141.898 755.291,153.599 762.518,162.429 C748.517,157.762 716.031,167.911 708.665,181.347" fill-opacity="0" stroke="#D6D6D6" stroke-width="4" stroke-linecap="round" stroke-linejoin="round"/>
  </g>
  <g id="Layer_2">
    <path d="M631.659,185.098 L631.71,184.733 L631.784,183.928 L631.812,183.101 L631.794,182.279 L631.687,181.076 L631.409,179.48 L630.987,177.887 L630.441,176.316 L629.787,174.77 L629.044,173.245 L628.223,171.74 L627.341,170.252 L625.938,168.06 L623.966,165.171 L621.975,162.319 L620.54,160.211 L619.637,158.827 L618.785,157.448 L617.998,156.08 L617.289,154.725 L616.669,153.383 L616.149,152.057 L615.738,150.747 L615.444,149.454 L615.31,148.518 L615.26,147.91 L615.24,147.282 L615.254,146.658 L615.303,146.037 L615.387,145.416 L615.508,144.796 L615.668,144.177 L615.867,143.555 L616.108,142.93 L616.392,142.303 L616.722,141.669 L617.099,141.029 L617.527,140.382 L617.743,140.08 L617.712,140.123 L617.913,139.853 L618.281,139.39 L618.648,138.969 L619.026,138.57 L619.631,137.992 L620.47,137.301 L621.324,136.708 L622.209,136.192 L623.121,135.75 L624.059,135.379 L625.017,135.078 L625.994,134.847 L626.984,134.683 L627.985,134.587 L628.992,134.559 L630,134.597 L631.005,134.701 L632.001,134.872 L632.983,135.109 L633.947,135.412 L634.885,135.779 L635.794,136.21 L636.669,136.706 L637.503,137.264 L638.293,137.885 L639.034,138.568 L639.72,139.313 L640.348,140.12 L640.764,140.747 L641.018,141.178 L641.268,141.644 L641.5,142.125 L641.713,142.623 L641.906,143.136 L642.08,143.666 L642.232,144.212 L642.363,144.775 L642.472,145.355 L642.557,145.951 L642.618,146.564 L642.638,146.857 L642.635,146.806 L642.666,147.512 L642.657,148.8 L642.568,150.018 L642.404,151.204 L642.17,152.362 L641.873,153.495 L641.515,154.608 L641.102,155.705 L640.637,156.789 L640.125,157.863 L639.569,158.929 L638.975,159.991 L638.014,161.591 L636.651,163.716 L635.237,165.856 L633.807,168.039 L632.408,170.285 L631.404,172.034 L630.765,173.238 L630.171,174.458 L629.619,175.707 L629.119,176.986 L628.676,178.299 L628.299,179.647 L627.994,181.03 L627.769,182.45 L627.631,183.908 L627.594,184.678 L627.594,184.678 C627.525,185.806 628.549,186.729 629.881,186.74 C631.213,186.752 632.349,185.847 632.418,184.719 C632.418,184.719 632.418,184.719 632.418,184.719 L632.466,184.115 L632.622,182.877 L632.849,181.674 L633.142,180.498 L633.497,179.347 L633.909,178.217 L634.375,177.105 L634.889,176.006 L635.45,174.92 L636.043,173.853 L637.005,172.249 L638.391,170.103 L639.846,167.944 L641.327,165.752 L642.776,163.516 L643.816,161.802 L644.481,160.623 L645.113,159.419 L645.703,158.187 L646.247,156.926 L646.735,155.632 L647.16,154.305 L647.515,152.942 L647.794,151.543 L647.99,150.107 L648.095,148.634 L648.105,147.155 L648.076,146.447 L648.076,146.447 C648.075,146.43 648.074,146.414 648.073,146.397 L648.073,146.397 L648.044,145.982 L647.965,145.206 L647.854,144.444 L647.713,143.7 L647.541,142.971 L647.34,142.259 L647.11,141.563 L646.852,140.886 L646.567,140.226 L646.255,139.584 L645.917,138.961 L645.542,138.338 L644.938,137.449 L644.069,136.357 L643.117,135.346 L642.086,134.416 L640.985,133.57 L639.82,132.809 L638.598,132.134 L637.325,131.546 L636.009,131.047 L634.655,130.638 L633.27,130.319 L631.86,130.093 L630.432,129.961 L628.992,129.923 L627.546,129.983 L626.103,130.14 L624.668,130.396 L623.251,130.754 L621.858,131.213 L620.499,131.774 L619.18,132.438 L617.912,133.203 L616.702,134.07 L615.578,135.018 L614.784,135.788 L614.267,136.344 L613.77,136.925 L613.308,137.509 L613.107,137.781 L613.107,137.781 C613.096,137.795 613.086,137.809 613.076,137.824 L613.076,137.824 L612.76,138.273 L612.207,139.124 L611.713,139.979 L611.279,140.834 L610.902,141.691 L610.583,142.547 L610.319,143.401 L610.11,144.255 L609.953,145.104 L609.848,145.948 L609.791,146.788 L609.781,147.622 L609.816,148.449 L609.896,149.292 L610.091,150.527 L610.472,152.12 L610.979,153.685 L611.597,155.224 L612.311,156.74 L613.106,158.235 L613.967,159.712 L614.883,161.172 L615.843,162.623 L617.324,164.764 L619.321,167.572 L621.264,170.346 L622.631,172.41 L623.468,173.764 L624.236,175.107 L624.926,176.436 L625.525,177.753 L626.027,179.054 L626.42,180.342 L626.703,181.638 L626.834,182.612 L626.88,183.245 L626.896,183.877 L626.876,184.534 L626.849,184.902 C626.849,184.902 626.849,184.902 626.849,184.902 C626.728,186.028 627.708,186.985 629.036,187.039 C630.365,187.093 631.539,186.224 631.659,185.098 L631.659,185.098" fill="#008CBA"/>
    <path d="M629.287,155.655 L628.828,155.507 L628.104,155.217 L627.468,154.889 L626.853,154.508 L626.259,154.067 L625.686,153.564 L625.134,152.995 L624.606,152.359 L624.377,152.048 L624.428,152.116 L624.183,151.765 L623.827,151.167 L623.563,150.609 L623.36,150.054 L623.215,149.505 L623.124,148.962 L623.085,148.427 L623.094,147.901 L623.15,147.385 L623.25,146.882 L623.392,146.393 L623.574,145.922 L623.792,145.471 L624.045,145.042 L624.329,144.638 L624.641,144.263 L624.978,143.918 L625.335,143.606 L625.709,143.329 L626.097,143.089 L626.495,142.886 L626.9,142.721 L627.31,142.594 L627.725,142.504 L628.144,142.452 L628.571,142.438 L629.008,142.463 L629.461,142.529 L629.932,142.641 L630.426,142.804 L630.943,143.026 L631.484,143.314 L631.717,143.457 L631.622,143.398 L631.966,143.623 L632.462,144.004 L632.859,144.379 L633.209,144.78 L633.515,145.205 L633.781,145.654 L634.005,146.127 L634.188,146.62 L634.33,147.132 L634.431,147.66 L634.491,148.201 L634.51,148.75 L634.487,149.304 L634.425,149.857 L634.324,150.408 L634.184,150.948 L634.009,151.476 L633.8,151.985 L633.56,152.471 L633.291,152.93 L633,153.36 L632.688,153.756 L632.359,154.114 L632.016,154.432 L631.665,154.709 L631.307,154.942 L630.945,155.135 L630.58,155.286 L630.21,155.399 L629.827,155.475 L629.427,155.515 L628.997,155.517 L628.837,155.507 L628.837,155.507 C627.52,155.376 626.281,156.177 626.07,157.296 C625.858,158.416 626.755,159.431 628.072,159.563 L628.653,159.627 L629.672,159.663 L630.675,159.594 L631.648,159.425 L632.581,159.163 L633.464,158.818 L634.293,158.401 L635.065,157.919 L635.779,157.382 L636.435,156.795 L637.033,156.166 L637.575,155.499 L638.061,154.798 L638.49,154.066 L638.864,153.309 L639.184,152.53 L639.448,151.732 L639.656,150.918 L639.806,150.092 L639.897,149.254 L639.926,148.411 L639.891,147.564 L639.79,146.717 L639.619,145.874 L639.375,145.039 L639.055,144.216 L638.655,143.412 L638.172,142.632 L637.605,141.883 L636.951,141.171 L636.211,140.503 L635.434,139.92 L635.09,139.693 L635.09,139.693 C635.059,139.673 635.027,139.653 634.995,139.634 L634.995,139.634 L634.468,139.326 L633.49,138.835 L632.488,138.438 L631.468,138.137 L630.438,137.933 L629.407,137.825 L628.383,137.812 L627.377,137.891 L626.397,138.056 L625.451,138.301 L624.546,138.621 L623.684,139.01 L622.872,139.46 L622.11,139.968 L621.401,140.527 L620.747,141.133 L620.15,141.782 L619.61,142.471 L619.131,143.196 L618.714,143.953 L618.362,144.74 L618.078,145.552 L617.864,146.387 L617.724,147.242 L617.66,148.112 L617.677,148.993 L617.776,149.882 L617.962,150.772 L618.235,151.661 L618.6,152.541 L619.057,153.409 L619.58,154.224 L619.836,154.572 L619.836,154.572 C619.853,154.595 619.87,154.618 619.887,154.64 L619.887,154.64 L620.293,155.141 L621.103,156.022 L621.98,156.827 L622.923,157.55 L623.93,158.185 L624.997,158.725 L626.12,159.162 L627.231,159.476 L627.715,159.569 C627.715,159.569 627.715,159.569 627.715,159.569 C628.977,159.89 630.351,159.275 630.785,158.195 C631.219,157.114 630.549,155.977 629.287,155.655 L629.287,155.655" fill="#008CBA"/>
    <g>
      <path d="M629.335,156.429 C624.982,156.429 621.453,152.926 621.453,148.606 C621.453,144.286 624.982,140.784 629.335,140.784 C633.689,140.784 637.218,144.286 637.218,148.606 C637.218,152.926 633.689,156.429 629.335,156.429 z" fill="#008CBA"/>
      <path d="M629.335,156.429 C624.982,156.429 621.453,152.926 621.453,148.606 C621.453,144.286 624.982,140.784 629.335,140.784 C633.689,140.784 637.218,144.286 637.218,148.606 C637.218,152.926 633.689,156.429 629.335,156.429 z" fill-opacity="0" stroke="#008CBA" stroke-width="5.5"/>
    </g>
  </g>
</svg>
